%YAML 1.1
%TAG !u! tag:unity3d.com,2011:
--- !u!1 &7673381370450872120
GameObject:
  m_ObjectHideFlags: 0
  m_CorrespondingSourceObject: {fileID: 0}
  m_PrefabInstance: {fileID: 0}
  m_PrefabAsset: {fileID: 0}
  serializedVersion: 6
  m_Component:
  - component: {fileID: 7673381370450872123}
  - component: {fileID: 7673381370450872122}
  m_Layer: 0
  m_Name: PickupSpawner
  m_TagString: Untagged
  m_Icon: {fileID: 0}
  m_NavMeshLayer: 0
  m_StaticEditorFlags: 0
  m_IsActive: 1
--- !u!4 &7673381370450872123
Transform:
  m_ObjectHideFlags: 0
  m_CorrespondingSourceObject: {fileID: 0}
  m_PrefabInstance: {fileID: 0}
  m_PrefabAsset: {fileID: 0}
  m_GameObject: {fileID: 7673381370450872120}
  m_LocalRotation: {x: 0, y: 0, z: 0, w: 1}
  m_LocalPosition: {x: -4.907794, y: 1.5, z: -10.267761}
  m_LocalScale: {x: 1, y: 1, z: 1}
  m_Children: []
  m_Father: {fileID: 0}
  m_RootOrder: 0
  m_LocalEulerAnglesHint: {x: 0, y: 0, z: 0}
--- !u!114 &7673381370450872122
MonoBehaviour:
  m_ObjectHideFlags: 0
  m_CorrespondingSourceObject: {fileID: 0}
  m_PrefabInstance: {fileID: 0}
  m_PrefabAsset: {fileID: 0}
  m_GameObject: {fileID: 7673381370450872120}
  m_Enabled: 1
  m_EditorHideFlags: 0
  m_Script: {fileID: 11500000, guid: c2a9d765858709845ae44fe4eaf38d8c, type: 3}
  m_Name: 
  m_EditorClassIdentifier: 
  pickupPrefab: {fileID: 8826039063637586749, guid: 2bf111dafd4ac4846aeb1027e3a5fa18,
    type: 3}
  spawnedPickup: {fileID: 0}
  spawnDelay: 0
  nextSpawnTime: 0
